spawns	name	room	loc_x	loc_y	loc_z	yaw	script	mood	animation_mood	respawn_time	spawn_objvar	special_room	special_room_script	room_objvar	room_objvar_name	room_objvar_value
s	s	s	f	f	f	f	s	s	s	i	s	s	s	s	s	s
rebel_scout		mainhall	-0.054482002	0.125265002	0.970245004		theme_park.dungeon.generic_death			543	int:ai.defaultCalmBehavior=2					
rebel_scout		mainhall	-0.054482002	0.125265002	0.970245004		theme_park.dungeon.generic_death			543	int:ai.defaultCalmBehavior=2					
senior_specforce_pathfinder		room2	3.857019901	0.125266001	-4.012018204		theme_park.dungeon.generic_death			476	int:ai.defaultCalmBehavior=1					
