spawns	name	room	loc_x	loc_y	loc_z	yaw	script	mood	animation_mood	respawn_time	spawn_objvar	special_room	special_room_script	room_objvar	room_objvar_name	room_objvar_value
s	s	s	f	f	f	f	s	s	s	i	s	s	s	s	s	s
specforce_technician		room2	3.725010395	0.125266001	-3.773784399		theme_park.dungeon.generic_death			898	int:ai.defaultCalmBehavior=1					
rebel_brigadier_general		room3	-3.040275097	0.125266001	-3.910998106		theme_park.dungeon.generic_death			1020	int:ai.defaultCalmBehavior=1					
