spawns	name	room	loc_x	loc_y	loc_z	yaw	script	mood	animation_mood	respawn_time	spawn_objvar	special_room	special_room_script	room_objvar	room_objvar_name	room_objvar_value
s	s	s	f	f	f	f	s	s	s	i	s	s	s	s	s	s
rodian_sif		hall1	-3.742991924	0.25	-1.022120953		theme_park.dungeon.generic_death			360	int:ai.defaultCalmBehavior=1					
trandoshan_sif		ramp1	3.811975002	-3.25	5.066823006		theme_park.dungeon.generic_death			360	int:ai.defaultCalmBehavior=1					
trandoshan_sif_02		room1	-2.404037952	-6.75	-6.82626009		theme_park.dungeon.generic_death			360	int:ai.defaultCalmBehavior=1					
rodian_sif_02		room1	-7.45740509	-6.75	-6.584403992		theme_park.dungeon.generic_death			100	int:ai.defaultCalmBehavior=1					
trandoshan_sif_02		room2	6.576031208	-6.766777039	-16.04996109		theme_park.dungeon.generic_death			360	int:ai.defaultCalmBehavior=1					
rodian_sif		room2	-4.274508953	-6.766777039	-15.23715305		theme_park.dungeon.generic_death			360	int:ai.defaultCalmBehavior=1					
rodian_sif_02		room3	5.177598953	-6.75	-2.125675917		theme_park.dungeon.generic_death			360	int:ai.defaultCalmBehavior=1					
trandoshan_sif		room3	5.31329298	-6.75	-7.817624092		theme_park.dungeon.generic_death			360	int:ai.defaultCalmBehavior=1					
erran_sif		basement	-4.028298855	-13.75	-16.55225563		theme_park.dungeon.generic_death			3600	int:ai.defaultCalmBehavior=1					
doak_sif		basement	1.420052052	-13.75	-14.79106712		theme_park.dungeon.generic_death			3600	int:ai.defaultCalmBehavior=1					
hirsch_sif		basement	-6.906948566	-13.75	-13.0714817		theme_park.dungeon.generic_death			3600	int:ai.defaultCalmBehavior=1					
rodian_sif_02		basement	-5.539885044	-13.75	0.494374007		theme_park.dungeon.generic_death			360	int:ai.defaultCalmBehavior=1					
trandoshan_sif_02		basement	0.2509	-13.75	0.777902007		theme_park.dungeon.generic_death			360	int:ai.defaultCalmBehavior=1					
