objid	container	server_template_crc	cell_index	px	py	pz	qw	qx	qy	qz	scripts	objvars
i	i	h	i	f	f	f	f	f	f	f	s	p
1855720	0	object/building/general/bunker_imperial_02.iff	0	1142.46	5	1600.2	-0.461426	0	0.887179	0	theme_park.dungeon.generic_spawner	spawn_table|4|datatables/spawning/poi_spawner/corellia/rogue_corsec_bunker.iff|$|
1855721	1855720	object/cell/cell.iff	1	0	0	0	1	1.401298E-45	0	0		$|
1855722	1855720	object/cell/cell.iff	2	0	0	0	1	2.802597E-45	0	0		$|
2005759	1855722	object/static/item/item_mun_ballot_box.iff	2	0.01093413	4.455831	1.724285	-1.605779E-15	0	3.200127E-08	-3.200127E-08		$|
2005760	1855722	object/static/item/item_mun_ballot_box.iff	2	-3.534358	4.044737	-5.277969	-1.605779E-15	0	-3.200127E-08	-3.200127E-08		$|
2005762	1855722	object/static/item/item_medical_console.iff	2	-2.246239	1.514911	-0.6059237	-0.6532815	0	0.6532815	-0.2705981		$|
1855723	1855720	object/cell/cell.iff	3	0	0	0	1	4.203895E-45	0	0		$|
2005763	1855723	object/static/item/item_rifle_t21.iff	3	5.467196	0.5978504	-3.264689	-0.7032126	0	-0.07410987	0.7032123		$|
2005764	1855723	object/static/item/item_rifle_t21.iff	3	5.458862	0.5978504	-3.553381	-0.7032126	0	-0.07410987	0.7032123		$|
2005765	1855723	object/static/item/item_rifle_t21.iff	3	5.485598	0.5978504	-3.888336	-0.7032126	0	-0.07410987	0.7032123		$|
2005766	1855723	object/static/item/item_rifle_t21.iff	3	5.492609	0.5978504	-4.756212	-0.7032126	0	-0.07410987	0.7032123		$|
2005767	1855723	object/static/item/item_rifle_t21.iff	3	5.480115	0.5978504	-5.011155	-0.7032126	0	-0.07410987	0.7032123		$|
2005768	1855723	object/static/item/item_storage_cabinet_01.iff	3	4.44489	0.25	-5.698855	1	0	0	0		$|
2005769	1855723	object/static/item/wp_carbine_e11_combined.iff	3	4.553906	0.6927189	-5.605211	-0.5794237	0	0.597084	0.3596661		$|
2005770	1855723	object/static/item/wp_carbine_ee3_combined.iff	3	4.481867	1.008947	-5.533027	-0.5980839	0	0.5980837	0.3772211		$|
2005771	1855723	object/static/item/wp_carbine_ee3_combined.iff	3	4.40751	1.103815	-5.717535	0.5764426	0	0.5764428	-0.4095286		$|
2005772	1855723	object/static/item/wp_pistol_dl44_combined.iff	3	4.430779	0.3764911	-5.749953	-0.5744236	0	-0.4183898	0.3917278		$|
2005773	1855723	object/static/item/wp_pistol_dl44_combined.iff	3	4.20714	0.3764911	-5.559208	-0.5744236	0	-0.4183898	0.3917278		$|
1855724	1855720	object/cell/cell.iff	4	0	0	0	1	5.605194E-45	0	0		$|
1855725	1855720	object/cell/cell.iff	5	0	0	0	1	7.006492E-45	0	0		$|
1855726	1855720	object/cell/cell.iff	6	0	0	0	1	8.407791E-45	0	0		$|
1855727	1855720	object/cell/cell.iff	7	0	0	0	1	9.809089E-45	0	0		$|
2005777	1855727	object/static/item/item_rifle_t21.iff	7	-11.13531	-13.37836	6.272823	-0.1098463	0	0.6909689	-0.08569193		$|
2005778	1855727	object/static/item/item_rifle_t21.iff	7	-11.11609	-13.38383	6.560993	-0.1098463	0	0.6909689	-0.08569193		$|
2005779	1855727	object/static/item/item_rifle_t21.iff	7	-11.13043	-13.39267	6.896546	-0.1098463	0	0.6909689	-0.08569193		$|
2005780	1855727	object/static/item/item_rifle_t21.iff	7	-11.1049	-13.41139	7.763857	-0.1098463	0	0.6909689	-0.08569193		$|
2005781	1855727	object/static/item/item_rifle_t21.iff	7	-11.08283	-13.41588	8.018048	-0.1098463	0	0.6909689	-0.08569193		$|
2005782	1855727	object/static/item/item_storage_cabinet_01.iff	7	8.006355	-13.75	8.591385	-0.461426	0	0.887179	0		$|
2005783	1855727	object/static/item/wp_carbine_e11_combined.iff	7	7.867197	-13.30728	8.626908	0.262359	0	0.789562	0.54068		$|
2005784	1855727	object/static/item/wp_carbine_ee3_combined.iff	7	7.810968	-12.99105	8.503257	0.254636	0	0.806579	0.508722		$|
2005785	1855727	object/static/item/wp_carbine_ee3_combined.iff	7	8.042975	-12.89618	8.57161	0.7773947	0	-0.2454215	0.1743577		$|
2005786	1855727	object/static/item/wp_pistol_dl44_combined.iff	7	8.056159	-13.62351	8.609206	-0.63624	0	0.316561	-0.337724		$|
2005787	1855727	object/static/item/wp_pistol_dl44_combined.iff	7	8.028327	-13.62351	8.316604	-0.63624	0	0.316561	-0.337724		$|
2005788	1855727	object/tangible/furniture/all/frn_all_professor_desk.iff	7	-1.43309	-13.75	4.705194	1	0	0	0		$|
2005789	1855727	object/tangible/furniture/all/frn_all_professor_desk.iff	7	2.525518	-13.75	9.801102	-3.200127E-08	0	1	0		$|
2005790	1855727	object/tangible/furniture/all/frn_all_professor_desk.iff	7	-5.612198	-13.75	9.613658	-3.200127E-08	0	1	0		$|
2005791	1855727	object/tangible/furniture/technical/chair_s01.iff	7	-4.741752	-13.75	8.237606	0.9507964	0	-0.3098165	0		$|
2005792	1855727	object/tangible/furniture/technical/chair_s01.iff	7	2.35553	-13.75	8.255706	0.9915103	0	0.1300284	0		$|
2005793	1855727	object/tangible/furniture/technical/chair_s01.iff	7	-1.370097	-13.75	6.034468	-0.163859	0	0.986484	0		$|
2005794	1855727	object/tangible/furniture/technical/armoire_s01.iff	7	-3.092065	-13.75	10.2157	3.200127E-08	0	1	0		$|
2005795	1855727	object/tangible/furniture/technical/armoire_s01.iff	7	0.5939068	-13.75	10.16159	3.200127E-08	0	1	0		$|
2005796	1855727	object/tangible/furniture/technical/chair_s01.iff	7	6.495656	-13.75	4.591217	0.8819579	0	-0.4713281	0		$|
2005797	1855727	object/tangible/furniture/technical/chair_s01.iff	7	-9.424046	-13.75	4.621763	0.8917488	0	0.4525308	0		$|
4608175	1855727	object/tangible/quest/corellia_coronet_rogue_corsec_base_computer_fake.iff	8	-1.154633	-13.75	10.53889	0.7071072	0	-0.7071063	0		$|
1855728	1855720	object/cell/cell.iff	8	0	0	0	1	1.121039E-44	0	0		$|
1855729	1855720	object/cell/cell.iff	9	0	0	0	1	1.261169E-44	0	0		$|
2005799	1855729	object/static/item/item_mun_ballot_box.iff	9	1.595188	-15.95823	1.378881	0	0	0	0.01380481		$|
2005802	1855729	object/static/structure/general/data_terminal_s4.iff	9	4.805089	-20.73322	1.716253	1	0	0	0		$|
2005803	1855729	object/tangible/furniture/all/frn_all_professor_desk.iff	9	6.195145	-20.73322	5.386351	0.707107	0	-0.7071065	0		$|
2005804	1855729	object/tangible/furniture/all/frn_all_professor_desk.iff	9	-3.187461	-20.73322	5.183187	0.707107	0	0.7071065	0		$|
2005805	1855729	object/tangible/furniture/technical/chair_s01.iff	9	4.821695	-20.73322	5.15794	0.9887711	0	0.1494381	0		$|
2005806	1855729	object/tangible/furniture/technical/chair_s01.iff	9	-1.525216	-20.73322	5.577404	-0.5318607	0	0.8468319	0		$|
2005807	1855729	object/static/structure/tatooine/debris_tatt_crate_1.iff	9	5.014186	-20.73322	11.7554	1	0	0	0		$|
2005808	1855729	object/static/structure/tatooine/debris_tatt_crate_1.iff	9	3.824598	-20.03753	11.36082	-0.1589249	0	0.9872909	0		$|
2005809	1855729	object/static/structure/tatooine/debris_tatt_crate_1.iff	9	4.711411	-20.73322	10.63519	0.7768198	0	-0.6297232	0		$|
2005810	1855729	object/static/structure/tatooine/debris_tatt_crate_1.iff	9	3.819925	-20.73322	11.95375	0.7510161	0	-0.6602841	0		$|
2005811	1855729	object/static/structure/tatooine/debris_tatt_crate_1.iff	9	3.650315	-20.73322	10.81673	-0.461426	0	0.887179	0		$|
2005812	1855729	object/static/structure/tatooine/debris_tatt_crate_1.iff	9	4.803484	-20.03753	11.14475	0.7768198	0	-0.629723	0		$|
2005813	1855729	object/static/structure/tatooine/debris_tatt_crate_1.iff	9	4.974145	-20.73322	9.616255	0.9994286	0	0.03379877	0		$|
2005814	1855729	object/static/item/item_mun_ballot_box.iff	9	1.514619	-16.40095	12.62802	0	0	0	0.9999946		$|
4305432	1855729	object/tangible/dungeon/corellian_corvette/corvette_search_neutral_destroy_02.iff	9	-1.760158	-20.73322	9.832203	0.707107	0	0.7071065	0		$|
4305433	1855729	object/tangible/dungeon/corellian_corvette/corvette_search_rebel_destroy_02.iff	9	-1.358994	-20.73322	11.80332	-0.5483571	0	0.8362442	0		$|
1855730	1855720	object/cell/cell.iff	10	0	0	0	1	1.401298E-44	0	0		$|
2005815	1855730	object/tangible/furniture/all/frn_all_desk_radar_topology_screen.iff	10	1.241556	-20.75	30.59393	0.7071075	0	-0.707106	0		$|
2005816	1855730	object/tangible/furniture/all/frn_all_desk_radar_topology_screen.iff	10	1.85658	-20.75	30.59863	0.7071076	0	0.7071059	0		$|
2005817	1855730	object/static/structure/general/data_terminal_s1.iff	10	1.520947	-20.75	28.33857	-3.200127E-08	0	1	0		$|
2005818	1855730	object/tangible/furniture/all/frn_all_professor_desk.iff	10	-4.044932	-20.75	34.62685	0.707107	0	0.7071065	0		$|
2005819	1855730	object/tangible/furniture/all/frn_all_professor_desk.iff	10	7.017549	-20.75	34.82185	0.7071072	0	-0.7071063	0		$|
2005820	1855730	object/tangible/furniture/technical/chair_s01.iff	10	-2.48448	-20.75	34.95037	0.7073888	0	-0.7068245	0		$|
2005821	1855730	object/tangible/furniture/technical/chair_s01.iff	10	5.7396	-20.75	35.29591	0.3483369	0	0.9373694	0		$|
2005825	1855730	object/tangible/furniture/all/frn_all_professor_desk.iff	10	7.056008	-20.75	29.41181	-0.7038453	0	0.7103539	0		$|
2005826	1855730	object/tangible/furniture/technical/chair_s01.iff	10	5.820791	-20.75	28.64341	0.9459133	0	0.3244195	0		$|
2005827	1855730	object/tangible/furniture/all/frn_all_professor_desk.iff	10	7.01043	-20.75	24.29017	0.7076671	0	-0.7065466	0		$|
2005828	1855730	object/tangible/furniture/technical/chair_s01.iff	10	5.438146	-20.75	23.62288	0.8045995	0	0.5938179	0		$|
2005829	1855730	object/tangible/furniture/all/frn_all_professor_desk.iff	10	7.04307	-20.75	19.27497	-0.7029965	0	0.7111942	0		$|
2005830	1855730	object/tangible/furniture/technical/chair_s01.iff	10	5.763783	-20.75	19.73929	0.5112112	0	0.8594552	0		$|
2005831	1855730	object/tangible/furniture/all/frn_all_professor_desk.iff	10	-4.033191	-20.75	29.21333	0.7141408	0	0.7000028	0		$|
2005832	1855730	object/tangible/furniture/technical/chair_s01.iff	10	-2.746005	-20.75	28.7651	0.933839	0	-0.3576935	0		$|
2005833	1855730	object/static/structure/general/data_terminal_s1.iff	10	1.56717	-20.75	32.79211	1	0	0	0		$|
2005834	1855730	object/tangible/furniture/technical/coffee_table_s01.iff	10	-1.803598	-20.7445	13.40687	1	0	0	0		$|
2005835	1855730	object/tangible/furniture/technical/coffee_table_s01.iff	10	-3.327693	-20.74456	13.42731	1	0	0	0		$|
2005836	1855730	object/tangible/furniture/technical/coffee_table_s01.iff	10	4.979826	-20.74928	13.39989	-0.004601526	0	0.9999896	0		$|
2005837	1855730	object/tangible/furniture/technical/coffee_table_s01.iff	10	6.503618	-20.74934	13.36548	-0.004601526	0	0.9999896	0		$|
2005838	1855730	object/static/item/item_decryptor_imperial.iff	10	-1.5045	-20.33663	13.28339	-0.4175946	0	0.9086335	0		$|
2005839	1855730	object/static/item/item_decryptor_imperial.iff	10	-2.026261	-20.33715	13.36984	0.613432	0	0.789748	0		$|
2005840	1855730	object/static/item/item_data_disk.iff	10	-1.596691	-20.33826	13.56767	1	0	0	0		$|
2005841	1855730	object/static/item/item_data_disk.iff	10	-1.77705	-20.33884	13.67159	-0.461426	0	0.887179	0		$|
2005842	1855730	object/static/item/item_data_disk.iff	10	-1.899373	-20.33847	13.60656	-0.461426	0	0.887179	0		$|
2005843	1855730	object/static/item/item_data_disk.iff	10	-1.986117	-20.33891	13.72779	-0.461426	0	0.887179	0		$|
2005844	1855730	object/static/item/item_data_disk.iff	10	-1.73137	-20.33809	13.53729	-0.461426	0	0.887179	0		$|
2005845	1855730	object/static/item/item_data_disk.iff	10	-1.733398	-20.33715	13.36919	-0.461426	0	0.887179	0		$|
2005846	1855730	object/static/item/item_decryptor_imperial.iff	10	-3.069454	-20.33663	13.51732	0.06535182	0	0.9978625	0		$|
2005847	1855730	object/static/item/item_decryptor_imperial.iff	10	-3.426994	-20.33715	13.12751	0.9154372	0	0.4024608	0		$|
2005848	1855730	object/static/item/item_data_disk.iff	10	-3.326552	-20.33826	13.5333	0.8794001	0	-0.4760834	0		$|
2005849	1855730	object/static/item/item_data_disk.iff	10	-3.543419	-20.33884	13.50114	0.01659299	0	0.9998623	0		$|
2005850	1855730	object/static/item/item_data_disk.iff	10	-3.555927	-20.33848	13.36356	0.01659299	0	0.9998623	0		$|
2005851	1855730	object/static/item/item_data_disk.iff	10	-3.704816	-20.33891	13.35706	0.01659299	0	0.9998623	0		$|
2005852	1855730	object/static/item/item_data_disk.iff	10	-3.406089	-20.33809	13.46614	0.01659299	0	0.9998623	0		$|
2005853	1855730	object/static/item/item_data_disk.iff	10	-3.266505	-20.33715	13.37265	0.01659299	0	0.9998623	0		$|
2005854	1855730	object/static/item/item_data_disk.iff	10	-3.713521	-20.33825	13.53578	0.4587553	0	0.8885626	0		$|
2005855	1855730	object/static/item/item_data_disk.iff	10	-3.407719	-20.33884	13.59546	0.9999955	0	0.003007999	0		$|
2005856	1855730	object/static/item/item_data_disk.iff	10	-3.390087	-20.33847	13.73243	0.9999955	0	0.003007999	0		$|
2005857	1855730	object/static/item/item_data_disk.iff	10	-3.240945	-20.33891	13.73305	0.9999955	0	0.003007999	0		$|
2005858	1855730	object/static/item/item_data_disk.iff	10	-3.543509	-20.33809	13.63563	0.9999955	0	0.003007999	0		$|
2005859	1855730	object/static/item/item_decryptor_imperial.iff	10	6.10365	-20.33662	13.08111	0.9505493	0	-0.3105736	0		$|
2005860	1855730	object/static/item/item_decryptor_imperial.iff	10	6.230218	-20.33715	13.5947	-0.1630725	0	0.9866142	0		$|
2005861	1855730	object/static/item/item_data_disk.iff	10	6.389188	-20.33826	13.6403	0.6791419	0	0.7340064	0		$|
2005862	1855730	object/static/item/item_data_disk.iff	10	6.257865	-20.33884	13.2023	0.9645687	0	-0.2638318	0		$|
2005863	1855730	object/static/item/item_data_disk.iff	10	6.456652	-20.33847	13.44962	0.9645687	0	-0.2638318	0		$|
2005864	1855730	object/static/item/item_data_disk.iff	10	6.584144	-20.33891	13.5268	0.9645687	0	-0.2638318	0		$|
2005865	1855730	object/static/item/item_data_disk.iff	10	6.426766	-20.33809	13.73781	0.9645687	0	-0.2638318	0		$|
2005866	1855730	object/static/item/item_data_disk.iff	10	6.259376	-20.33715	13.75251	0.9645687	0	-0.2638318	0		$|
2005867	1855730	object/static/item/item_data_disk.iff	10	6.42376	-20.33825	13.25359	0.7471771	0	-0.6646249	0		$|
2005868	1855730	object/static/item/item_data_disk.iff	10	6.218657	-20.33884	13.43948	0.2448748	0	0.9695546	0		$|
2005869	1855730	object/static/item/item_data_disk.iff	10	6.269015	-20.33847	13.31057	0.2448748	0	0.9695546	0		$|
2005870	1855730	object/static/item/item_data_disk.iff	10	6.138448	-20.33891	13.23862	0.2448748	0	0.9695546	0		$|
2005871	1855730	object/static/item/item_data_disk.iff	10	6.322515	-20.33809	13.08457	0.2448748	0	0.9695546	0		$|
2005872	1855730	object/static/item/item_decryptor_imperial.iff	10	5.331427	-20.33662	13.64285	0.4363993	0	0.8997532	0		$|
2005873	1855730	object/static/item/item_decryptor_imperial.iff	10	5.347239	-20.33715	13.11409	0.9996078	0	0.02800432	0		$|
2005874	1855730	object/static/item/item_data_disk.iff	10	5.240042	-20.33826	13.56854	0.7334673	0	-0.6797242	0		$|
2005875	1855730	object/static/item/item_data_disk.iff	10	5.319363	-20.33884	13.30041	0.3919857	0	0.9199713	0		$|
2005876	1855730	object/static/item/item_data_disk.iff	10	5.090157	-20.33847	13.19308	0.3919857	0	0.9199713	0		$|
2005877	1855730	object/static/item/item_data_disk.iff	10	5.178174	-20.33891	13.48766	0.3919857	0	0.9199713	0		$|
2005878	1855730	object/static/item/item_data_disk.iff	10	5.125954	-20.33809	13.37102	0.3919857	0	0.9199713	0		$|
2005879	1855730	object/static/item/item_data_disk.iff	10	5.291088	-20.33715	13.40183	0.3919857	0	0.9199713	0		$|
2005880	1855730	object/static/item/item_data_disk.iff	10	5.015505	-20.33825	13.60987	0.7596588	0	0.6503219	0		$|
2005881	1855730	object/static/item/item_data_disk.iff	10	5.138934	-20.33884	13.58367	0.9693593	0	-0.2456471	0		$|
2005882	1855730	object/static/item/item_data_disk.iff	10	5.088492	-20.33847	13.71242	0.9693593	0	-0.2456471	0		$|
2005883	1855730	object/static/item/item_data_disk.iff	10	5.218919	-20.33891	13.7846	0.9693593	0	-0.2456471	0		$|
2005884	1855730	object/static/item/item_data_disk.iff	10	5.225441	-20.33809	13.28131	0.9274777	0	-0.3738785	0		$|
4608179	1855730	object/tangible/quest/corellia_coronet_rogue_corsec_base_computer_fake.iff	10	4.205483	-20.75	36.4256	0.707108	0	-0.7071055	0		$|
4608914	1855730	object/tangible/collection/rare_melee_corsec_sword.iff	10	-3.906352	-19.97515	33.69582	-0.5601562	0	0.4501356	-0.4241086		$|
6575944	1855730	object/tangible/container/loot/placable_loot_crate.iff	10	-0.4769154	-20.75	35.28894	-0.0507745	0	0.9987102	0		$|
1855736	0	object/building/general/mun_all_hospital_s02.iff	0	1098.72	5	1619.31	0.300293	0	0.953847	0	theme_park.dungeon.generic_spawner	spawn_table|4|datatables/spawning/poi_spawner/corellia/rogue_corsec_hospital_1.iff|$|
1855737	1855736	object/cell/cell.iff	1	0	0	0	1	1.401298E-45	0	0		$|
1855738	1855736	object/cell/cell.iff	2	0	0	0	1	2.802597E-45	0	0		$|
2005661	1855738	object/tangible/furniture/all/frn_all_desk_radar_topology_screen.iff	2	-16.88843	0.184067	-7.505109	0.7071072	0	0.7071063	0		$|
2005662	1855738	object/tangible/furniture/all/frn_all_desk_radar_topology_screen.iff	2	-4.417004	0.184067	-11.71819	1	0	0	0		$|
2005663	1855738	object/tangible/furniture/all/frn_all_desk_radar_topology_screen.iff	2	16.91304	0.184067	-7.502894	0.7071072	0	-0.7071063	0		$|
2005664	1855738	object/tangible/furniture/all/frn_all_desk_radar_topology_screen.iff	2	4.447552	0.184067	-11.73423	1	0	0	0		$|
2005665	1855738	object/tangible/furniture/all/frn_all_desk_radar_topology_screen.iff	2	16.87159	0.184067	7.536091	0.7076694	0	-0.7065438	0		$|
2005666	1855738	object/tangible/furniture/all/frn_all_desk_radar_topology_screen.iff	2	4.469028	0.184067	11.70257	-0.000796544	0	0.9999997	0		$|
2005667	1855738	object/tangible/furniture/all/frn_all_desk_radar_topology_screen.iff	2	-16.86751	0.184067	7.490819	0.7065436	0	0.7076697	0		$|
2005668	1855738	object/tangible/furniture/all/frn_all_desk_radar_topology_screen.iff	2	-4.437895	0.184067	11.63468	-0.000796544	0	0.9999997	0		$|
2005669	1855738	object/tangible/furniture/all/frn_all_professor_desk.iff	2	-9.332965	0.184067	-11.14973	0.9999875	0	-0.004998868	0		$|
2005670	1855738	object/tangible/furniture/modern/chair_modern_style_01.iff	2	-9.33706	0.184067	-9.300634	-0.1205023	0	0.992713	0		$|
2005671	1855738	object/tangible/furniture/all/frn_all_professor_desk.iff	2	9.209532	0.184067	-11.19017	0.9999875	0	-0.004998868	0		$|
2005672	1855738	object/tangible/furniture/modern/chair_modern_style_01.iff	2	8.146729	0.184067	-9.495131	0.3185544	0	0.9479045	0		$|
2005673	1855738	object/tangible/furniture/all/frn_all_professor_desk.iff	2	0.1082865	0.184067	-11.24206	0.9999875	0	-0.004998868	0		$|
2005674	1855738	object/tangible/furniture/modern/chair_modern_style_01.iff	2	-0.9544926	0.184067	-9.543914	0.461073	0	0.8873621	0		$|
2005675	1855738	object/tangible/furniture/all/frn_all_professor_desk.iff	2	-16.42907	0.184067	3.430847	0.7062614	0	0.7079517	0		$|
2005676	1855738	object/tangible/furniture/modern/chair_modern_style_01.iff	2	-14.84598	0.184067	3.230283	0.8710759	0	-0.4911484	0		$|
2005677	1855738	object/tangible/furniture/all/frn_all_professor_desk.iff	2	-16.45065	0.184067	-3.706161	0.7062614	0	0.7079517	0		$|
2005678	1855738	object/tangible/furniture/modern/chair_modern_style_01.iff	2	-14.52892	0.184067	-3.228011	0.7293624	0	-0.6841273	0		$|
2005679	1855738	object/tangible/furniture/all/frn_all_professor_desk.iff	2	16.48563	0.184067	-3.473862	0.7079487	0	-0.7062649	0		$|
2005680	1855738	object/tangible/furniture/modern/chair_modern_style_01.iff	2	14.90242	0.184067	-3.273287	0.4911492	0	0.8710755	0		$|
2005681	1855738	object/tangible/furniture/all/frn_all_professor_desk.iff	2	16.50721	0.184067	3.663072	0.7079487	0	-0.7062649	0		$|
2005682	1855738	object/tangible/furniture/modern/chair_modern_style_01.iff	2	14.58546	0.184067	3.184926	0.6841276	0	0.7293623	0		$|
2005683	1855738	object/tangible/furniture/all/frn_all_professor_desk.iff	2	-9.284455	0.184067	11.32079	-8.510601E-07	0	1	0		$|
2005684	1855738	object/tangible/furniture/modern/chair_modern_style_01.iff	2	-8.238476	0.184067	9.615195	0.9494852	0	-0.3138117	0		$|
2005686	1855738	object/tangible/furniture/modern/chair_modern_style_01.iff	2	0.8625849	0.184067	9.573094	0.8896559	0	-0.4566314	0		$|
2005687	1855738	object/tangible/furniture/all/frn_all_professor_desk.iff	2	9.256473	0.184067	11.09508	-8.510601E-07	0	1	0		$|
2005688	1855738	object/tangible/furniture/modern/chair_modern_style_01.iff	2	9.242383	0.184067	9.245891	0.9920981	0	0.1254646	0		$|
2005693	1855738	object/static/structure/general/data_terminal_s1.iff	2	-3.579567	0.184067	0.03440686	0.707107	0	0.7071065	0		$|
2005694	1855738	object/static/structure/general/data_terminal_s1.iff	2	-4.647997	0.184067	-0.3352792	-3.200127E-08	0	1	0		$|
2005695	1855738	object/static/structure/general/data_terminal_s1.iff	2	-5.517876	0.184067	0.2331447	0.707107	0	-0.7071065	0		$|
2005696	1855738	object/static/structure/general/data_terminal_s1.iff	2	-4.449352	0.184067	0.6028664	1	0	0	0		$|
2005697	1855738	object/static/structure/corellia/corl_power_arial_prime.iff	2	-4.621744	-1.709677	0.02447703	0.9725143	0	0.232843	0		$|
2005698	1855738	object/static/structure/general/data_terminal_s1.iff	2	3.684815	0.1804447	0.4177054	0.7106344	0	-0.7035612	0		$|
2005699	1855738	object/static/structure/general/data_terminal_s1.iff	2	4.75694	0.1804447	0.7765843	0.9999875	0	0.005000089	0		$|
2005700	1855738	object/static/structure/general/data_terminal_s1.iff	2	5.621082	0.1804447	0.1995732	0.7035628	0	0.7106332	0		$|
2005701	1855738	object/static/structure/general/data_terminal_s1.iff	2	4.548877	0.1804447	-0.1594169	-0.005000074	0	0.9999875	0		$|
2005702	1855738	object/static/structure/corellia/corl_power_arial_prime.iff	2	4.727087	-1.713299	0.4171108	-0.2377026	0	0.971338	0		$|
4608172	1855738	object/tangible/quest/corellia_coronet_rogue_corsec_base_computer_fake.iff	2	1.181752	0.184067	11.99374	0.7071074	0	-0.7071061	0		$|
4608183	1855738	object/tangible/quest/corellia_coronet_rogue_corsec_base_computer.iff	2	-0.8189805	0.184067	11.99115	0.7071076	0	-0.7071059	0		$|
4608186	1855738	object/static/item/item_tool_sensor_beacon.iff	2	0.1919805	0.184067	11.69314	1	0	0	0		$|
1855739	1855736	object/cell/cell.iff	3	0	0	0	1	4.203895E-45	0	0		$|
1855740	0	object/building/general/mun_all_hospital_s02.iff	0	1158.95	5	1577.07	0.886811	0	0.462132	0	theme_park.dungeon.generic_spawner	spawn_table|4|datatables/spawning/poi_spawner/corellia/rogue_corsec_hospital_2.iff|$|
1855741	1855740	object/cell/cell.iff	1	0	0	0	1	1.401298E-45	0	0		$|
1855742	1855740	object/cell/cell.iff	2	0	0	0	1	2.802597E-45	0	0		$|
2005527	1855742	object/static/structure/general/droid_r2_powerdown.iff	2	8.859017	0.184067	-11.34996	1	0	0	0		$|
2005528	1855742	object/static/structure/general/droid_r2_powerdown.iff	2	8.08804	0.184067	-11.35751	1	0	0	0		$|
2005529	1855742	object/static/structure/general/droid_r2_powerdown.iff	2	9.564325	0.184067	-11.51708	-0.005796376	0	0.9999832	0		$|
2005530	1855742	object/static/structure/general/droid_r5_powerdown.iff	2	-0.2710926	0.184067	-11.39131	0.9954908	0	0.0948572	0		$|
2005531	1855742	object/static/structure/general/droid_r5_powerdown.iff	2	-1.070579	0.184067	-11.34342	0.9998	0	-0.01999867	0		$|
2005532	1855742	object/static/structure/general/droid_r5_powerdown.iff	2	-1.913247	0.184067	-11.45842	0.9998	0	-0.01999867	0		$|
2005533	1855742	object/static/structure/general/prp_engine.iff	2	15.43236	0.184067	-2.108078	1	0	0	0		$|
2005534	1855742	object/static/structure/general/prp_engine.iff	2	14.58702	0.184067	-1.7504	0.8868112	0	0.4621319	0		$|
2005535	1855742	object/static/structure/general/prp_engine.iff	2	13.76468	0.184067	-1.317456	0.8868112	0	0.4621319	0		$|
2005536	1855742	object/static/structure/general/prp_engine.iff	2	13.51582	0.184067	-0.582786	0.8868112	0	0.4621319	0		$|
2005537	1855742	object/static/structure/general/prp_engine.iff	2	16.39341	0.184067	-2.363633	-0.6413021	0	0.7672885	0		$|
2005538	1855742	object/static/structure/general/prp_engine.iff	2	16.19134	0.184067	-3.259101	0.9233028	0	-0.3840729	0		$|
2005539	1855742	object/static/structure/general/prp_engine.iff	2	14.53131	0.184067	-3.108663	-0.1361684	0	0.9906857	0		$|
2005540	1855742	object/static/structure/general/prp_engine.iff	2	15.18987	0.184067	-3.518226	-0.1361684	0	0.9906857	0		$|
2005541	1855742	object/static/structure/general/prp_junk_s6.iff	2	6.021991	1.069348	-9.762312	0.7071072	0	0	-0.7071063		$|
2005543	1855742	object/static/structure/general/prp_junk_s8.iff	2	4.031241	0.5691393	10.65297	-0.7056138	0	-0.04592965	0.6824232		$|
2005544	1855742	object/static/structure/general/prp_junk_s6.iff	2	3.527735	1.069504	-9.43214	-0.03618432	0	0.7061804	0.03618429		$|
2005545	1855742	object/static/structure/general/prp_junk_s6.iff	2	1.368189	0.9918978	-9.584984	0.5943165	0	-0.3831306	0.556086		$|
2005546	1855742	object/static/structure/general/prp_junk_s8.iff	2	2.685709	0.6267863	10.77566	-0.7020556	0	0.08436955	0.7020555		$|
2005547	1855742	object/static/structure/general/prp_junk_s8.iff	2	1.254068	0.6267858	10.69031	-0.7070964	0	-0.00381721	0.7070965		$|
2005548	1855742	object/static/structure/general/prp_junk_s8.iff	2	0.1368783	0.6267858	10.67803	-0.7070964	0	-0.00381721	0.7070965		$|
2005549	1855742	object/static/structure/general/prp_junk_s8.iff	2	-0.9570078	0.6267856	10.70178	-0.7070964	0	-0.00381721	0.7070965		$|
2005550	1855742	object/static/structure/general/prp_junk_s8.iff	2	-2.120385	0.6267856	10.65878	-0.7070964	0	-0.00381721	0.7070965		$|
2005551	1855742	object/static/structure/general/prp_junk_s8.iff	2	-14.96533	0.5603663	1.01382	-0.5992494	0	0.3753667	0.4115412		$|
2005552	1855742	object/static/structure/general/prp_junk_s8.iff	2	0.7517507	1.395782	10.72418	-0.7070964	0	-0.00381721	0.7070965		$|
2005553	1855742	object/static/structure/general/prp_junk_s8.iff	2	-0.3906342	1.395782	10.72172	-0.7070964	0	-0.00381721	0.7070965		$|
2005554	1855742	object/static/structure/general/prp_junk_s8.iff	2	-1.527037	1.395782	10.69743	-0.7070964	0	-0.00381721	0.7070965		$|
2005555	1855742	object/static/structure/general/prp_junk_s8.iff	2	-14.82976	0.5979394	-1.854515	-0.4181862	0	0.5632381	0.5468787		$|
2005556	1855742	object/static/structure/general/prp_junk_s8.iff	2	-5.817013	0.6267859	10.53765	0.00381689	0	0.7070965	-0.003816954		$|
2005557	1855742	object/static/structure/general/prp_junk_s8.iff	2	-4.653454	0.6267855	10.53548	0.00381689	0	0.7070965	-0.003816954		$|
2005558	1855742	object/static/structure/general/prp_junk_s8.iff	2	-16.50282	1.259233	-2.018901	0.7179316	0	0.6829007	-0.09780461		$|
2005559	1855742	object/static/structure/general/prp_junk_s8.iff	2	-5.223333	1.354109	10.4986	0.00381689	0	0.7070965	-0.003816954		$|
2005560	1855742	object/static/structure/general/droid_ra7_powerdown.iff	2	-7.722231	0.184067	-11.12724	0.9229965	0	-0.3848082	0		$|
2005561	1855742	object/static/structure/general/droid_r5_torso.iff	2	-6.353439	0.184067	-11.48415	1	0	0	0		$|
2005562	1855742	object/static/structure/general/droid_ra7_powerdown.iff	2	-7.064243	0.184067	-11.21333	0.990216	0	0.1395431	0		$|
2005563	1855742	object/static/structure/general/droid_r3_leg.iff	2	-5.484413	0.184067	-11.49154	1	0	0	0		$|
2005564	1855742	object/static/item/item_container_inorganic_minerals.iff	2	16.70694	0.184067	2.831303	1	0	0	0		$|
2005565	1855742	object/static/item/item_container_inorganic_minerals.iff	2	16.67984	0.184067	4.885837	1	0	0	0		$|
2005566	1855742	object/static/item/item_container_inorganic_minerals.iff	2	16.06067	0.184067	7.388889	0.7071072	0	-0.7071063	0		$|
2005567	1855742	object/static/item/item_container_inorganic_minerals.iff	2	15.9626	0.184067	6.424218	0.7071066	0	0.7071068	0		$|
2005568	1855742	object/static/item/item_container_inorganic_minerals.iff	2	16.09031	1.069504	7.051163	-0.6708825	0	0.7415637	0		$|
2005570	1855742	object/static/item/item_container_energy_liquid.iff	2	-2.573093	0.184067	-11.39504	1	0	0	0		$|
2005571	1855742	object/static/item/item_container_energy_liquid.iff	2	-2.9692	0.184067	-11.55082	0.8868112	0	0.4621319	0		$|
2005572	1855742	object/static/item/item_container_energy_liquid.iff	2	-3.045669	0.184067	-11.19904	0.8868112	0	0.4621319	0		$|
2005573	1855742	object/static/item/item_container_energy_liquid.iff	2	-3.355876	0.184067	-11.44565	0.8868112	0	0.4621319	0		$|
2005574	1855742	object/static/item/item_container_energy_liquid.iff	2	-3.344601	0.184067	-10.99172	0.8868112	0	0.4621319	0		$|
2005575	1855742	object/static/item/item_container_energy_liquid.iff	2	-2.622026	0.184067	-11.03707	0.8868112	0	0.4621319	0		$|
2005576	1855742	object/static/item/item_container_energy_liquid.iff	2	-4.516186	0.184067	-11.4003	0.3338628	0	0.9426216	0		$|
2005577	1855742	object/static/item/item_container_energy_liquid.iff	2	-4.30639	0.184067	-11.03004	-0.1395431	0	0.9902162	0		$|
2005578	1855742	object/static/item/item_container_energy_liquid.iff	2	-4.025556	0.184067	-11.25537	-0.1395431	0	0.9902162	0		$|
2005579	1855742	object/static/item/item_container_energy_liquid.iff	2	-3.939687	0.184067	-10.86834	-0.1395431	0	0.9902162	0		$|
2005580	1855742	object/static/item/item_container_energy_liquid.iff	2	-3.662825	0.184067	-11.22816	-0.1395431	0	0.9902162	0		$|
2005581	1855742	object/static/item/item_container_energy_liquid.iff	2	-4.252802	0.184067	-11.64741	-0.1395431	0	0.9902162	0		$|
2005582	1855742	object/static/item/item_container_inorganic_minerals.iff	2	16.6101	1.069504	5.256651	0.9999539	0	-0.009601967	0		$|
2005583	1855742	object/static/item/item_container_inorganic_minerals.iff	2	16.67424	1.069504	3.325817	0.009602025	0	0.9999539	0		$|
2005584	1855742	object/static/item/item_container_inorganic_minerals.iff	2	16.52888	0.184067	-7.452041	0.9998814	0	0.01539722	0		$|
2005585	1855742	object/static/item/item_container_inorganic_minerals.iff	2	15.98702	0.184067	-4.931252	0.717911	0	-0.6961349	0		$|
2005586	1855742	object/static/item/item_container_inorganic_minerals.iff	2	15.85936	0.184067	-5.892231	0.696135	0	0.7179108	0		$|
2005587	1855742	object/static/item/item_container_inorganic_minerals.iff	2	16.0063	1.069505	-5.269664	-0.6822214	0	0.7311456	0		$|
2005588	1855742	object/static/item/item_container_inorganic_minerals.iff	2	16.47061	1.069505	-7.079076	0.9999832	0	0.005795933	0		$|
2005589	1855742	object/static/item/item_container_inorganic_minerals.iff	2	-16.51593	0.184067	-4.56263	-0.01619342	0	0.9998689	0		$|
2005590	1855742	object/static/item/item_container_inorganic_minerals.iff	2	-16.55538	0.184067	-6.616957	-0.01619342	0	0.9998689	0		$|
2005591	1855742	object/static/item/item_container_inorganic_minerals.iff	2	-16.49763	1.069505	-6.990068	-0.006592277	0	0.9999783	0		$|
2005592	1855742	object/static/item/item_container_inorganic_minerals.iff	2	-16.49934	1.069505	-5.058146	0.9999782	0	0.006593059	0		$|
2005593	1855742	object/static/structure/general/prp_junk_s8.iff	2	-15.62956	0.6267868	4.050712	-0.487141	0	0.5125366	0.487141		$|
2005594	1855742	object/static/structure/general/prp_junk_s8.iff	2	-15.58502	0.6267858	2.887861	-0.487141	0	0.5125366	0.487141		$|
2005595	1855742	object/static/structure/general/prp_junk_s8.iff	2	-15.64479	1.35411	3.455961	-0.487141	0	0.5125366	0.487141		$|
2005597	1855742	object/static/item/item_container_inorganic_minerals.iff	2	-0.97815	0.184067	1.348805	-0.02658906	0	0.9996464	0		$|
2005598	1855742	object/static/item/item_container_inorganic_minerals.iff	2	-0.4928635	0.184067	-1.183637	0.6880546	0	0.725659	0		$|
2005599	1855742	object/static/item/item_container_inorganic_minerals.iff	2	-0.3436475	0.184067	-0.2257752	0.7256583	0	-0.6880555	0		$|
2005600	1855742	object/static/item/item_container_inorganic_minerals.iff	2	-0.5043438	1.069505	-0.8447562	0.7234623	0	0.690364	0		$|
2005601	1855742	object/static/item/item_container_inorganic_minerals.iff	2	-0.9283533	1.069505	0.9744762	-0.01699015	0	0.9998556	0		$|
2005602	1855742	object/static/item/item_container_inorganic_minerals.iff	2	1.593121	0.184067	-1.275477	0.6997163	0	0.7144207	0		$|
2005603	1855742	object/static/item/item_container_inorganic_minerals.iff	2	4.108411	0.184067	-0.7084895	0.9999459	0	0.01039865	0		$|
2005604	1855742	object/static/item/item_container_inorganic_minerals.iff	2	3.14623	0.184067	-0.5903878	-0.01039879	0	0.9999461	0		$|
2005605	1855742	object/static/item/item_container_inorganic_minerals.iff	2	3.770041	1.069505	-0.7309641	0.999216	0	-0.03959096	0		$|
2005606	1855742	object/static/item/item_container_inorganic_minerals.iff	2	1.965627	1.069505	-1.213504	0.7065433	0	0.7076697	0		$|
2005607	1855742	object/static/item/item_container_inorganic_minerals.iff	2	-1.295434	0.184067	3.414868	-0.0349932	0	0.9993876	0		$|
2005608	1855742	object/static/item/item_container_inorganic_minerals.iff	2	-0.3400958	0.184067	3.249716	0.9993875	0	0.03499407	0		$|
2005609	1855742	object/static/item/item_container_inorganic_minerals.iff	2	-0.9563066	1.069505	3.420835	0.01499929	0	0.9998875	0		$|
2005610	1855742	object/static/item/item_container_inorganic_minerals.iff	2	3.323668	0.184067	3.6631	0.7423628	0	-0.6699987	0		$|
2005611	1855742	object/static/item/item_container_inorganic_minerals.iff	2	3.318506	1.069505	3.324179	0.7079484	0	-0.7062653	0		$|
2005612	1855742	object/static/item/item_container_inorganic_minerals.iff	2	1.244788	0.184067	3.857656	0.7314157	0	-0.6819323	0		$|
2005613	1855742	object/static/item/item_container_inorganic_minerals.iff	2	0.8696839	1.069505	3.813946	0.7248361	0	-0.6889215	0		$|
2005614	1855742	object/static/item/item_container_inorganic_minerals.iff	2	3.127488	0.184067	2.713747	0.6699957	0	0.7423649	0		$|
4608168	1855742	object/tangible/quest/corellia_coronet_rogue_corsec_base_computer_fake.iff	2	-17.28395	0.184067	6.585091	-3.200127E-08	0	1	0		$|
6575945	1855742	object/tangible/container/loot/placable_loot_crate.iff	2	1.624408	0.184067	-0.01918647	0.99955	0	0.02999549	0		$|
1855743	1855740	object/cell/cell.iff	3	0	0	0	1	4.203895E-45	0	0		$|
1855744	0	object/building/general/mun_all_hospital_s02.iff	0	1116.96	5	1547.85	0.953847	0	-0.300293	0	theme_park.dungeon.generic_spawner	spawn_table|4|datatables/spawning/poi_spawner/corellia/rogue_corsec_hospital_3.iff|$|
1855745	1855744	object/cell/cell.iff	1	0	0	0	1	1.401298E-45	0	0		$|
1855746	1855744	object/cell/cell.iff	2	0	0	0	1	2.802597E-45	0	0		$|
2005616	1855746	object/tangible/furniture/all/frn_all_bed_lg_s2.iff	2	-1.791851	0.184067	-9.602944	1	0	0	0		$|
2005617	1855746	object/tangible/furniture/all/frn_all_bed_lg_s2.iff	2	1.73355	0.184067	-9.551433	1	0	0	0		$|
2005618	1855746	object/tangible/furniture/all/frn_all_bed_lg_s2.iff	2	-5.401577	0.184067	-9.610507	1	0	0	0		$|
2005619	1855746	object/tangible/furniture/all/frn_all_bed_lg_s2.iff	2	5.332344	0.184067	-9.548913	1	0	0	0		$|
2005620	1855746	object/tangible/furniture/all/frn_all_bed_lg_s2.iff	2	-5.308598	0.184067	9.640589	-0.000797202	0	0.9999996	0		$|
2005621	1855746	object/tangible/furniture/all/frn_all_bed_lg_s2.iff	2	-1.709753	0.184067	9.637365	-0.000797202	0	0.9999996	0		$|
2005622	1855746	object/tangible/furniture/all/frn_all_bed_lg_s2.iff	2	1.815648	0.184067	9.683258	-0.000797202	0	0.9999996	0		$|
2005623	1855746	object/tangible/furniture/all/frn_all_bed_lg_s2.iff	2	5.425331	0.184067	9.685068	-0.000797202	0	0.9999996	0		$|
2005624	1855746	object/tangible/furniture/all/frn_all_professor_desk.iff	2	-16.43794	0.184067	6.330845	0.7073889	0	0.7068243	0		$|
2005625	1855746	object/tangible/furniture/modern/chair_modern_style_01.iff	2	-14.6199	0.184067	5.812997	0.9026107	0	-0.4304579	0		$|
2005626	1855746	object/tangible/furniture/all/frn_all_professor_desk.iff	2	-16.42907	0.184067	-4.70898	0.7038454	0	0.7103531	0		$|
2005627	1855746	object/tangible/furniture/modern/chair_modern_style_01.iff	2	-14.71113	0.184067	-3.678892	-0.3105727	0	0.9505497	0		$|
2005628	1855746	object/tangible/furniture/all/frn_all_professor_desk.iff	2	16.46237	0.184067	-6.316092	0.7073882	0	-0.7068253	0		$|
2005629	1855746	object/tangible/furniture/modern/chair_modern_style_01.iff	2	14.64536	0.184067	-5.795465	0.4297398	0	0.9029528	0		$|
2005630	1855746	object/tangible/furniture/all/frn_all_professor_desk.iff	2	16.39821	0.184067	5.717588	0.7109146	0	-0.7032782	0		$|
2005631	1855746	object/tangible/furniture/modern/chair_modern_style_01.iff	2	14.67831	0.184067	4.690371	0.950302	0	0.3113296	0		$|
2005632	1855746	object/tangible/furniture/technical/cabinet_s01.iff	2	8.400354	0.184067	-11.52007	1	0	0	0		$|
2005634	1855746	object/tangible/furniture/technical/armoire_s01.iff	2	3.483208	0.184067	-11.64037	0.9999875	0	0.004999979	0		$|
2005635	1855746	object/tangible/furniture/technical/armoire_s01.iff	2	-0.06414405	0.184067	-11.65649	1	0	0	0		$|
2005636	1855746	object/tangible/furniture/technical/armoire_s01.iff	2	-3.6067	0.184067	-11.65008	0.9999875	0	0.005000112	0		$|
2005637	1855746	object/tangible/furniture/technical/cabinet_s01.iff	2	-8.293022	0.184067	-11.60536	0.9999875	0	0.005000156	0		$|
2005638	1855746	object/tangible/furniture/technical/cabinet_s01.iff	2	8.353735	0.184067	11.55314	-0.005796325	0	0.9999831	0		$|
2005639	1855746	object/tangible/furniture/technical/armoire_s01.iff	2	3.667491	0.184067	11.60541	-0.005796325	0	0.9999831	0		$|
2005640	1855746	object/tangible/furniture/technical/armoire_s01.iff	2	0.1250704	0.184067	11.61727	-0.0007966209	0	0.9999996	0		$|
2005641	1855746	object/tangible/furniture/technical/armoire_s01.iff	2	-3.422471	0.184067	11.60693	-0.005796325	0	0.9999831	0		$|
2005642	1855746	object/tangible/furniture/technical/cabinet_s01.iff	2	-8.339649	0.184067	11.49453	-0.0007966209	0	0.9999996	0		$|
2005643	1855746	object/tangible/furniture/all/frn_all_bed_lg_s2.iff	2	5.239746	0.184067	2.46178	1	0	0	0		$|
2005644	1855746	object/tangible/furniture/all/frn_all_bed_lg_s2.iff	2	-1.884288	0.184067	2.4075	1	0	0	0		$|
2005645	1855746	object/tangible/furniture/all/frn_all_bed_lg_s2.iff	2	1.640991	0.184067	2.45921	1	0	0	0		$|
2005646	1855746	object/tangible/furniture/all/frn_all_bed_lg_s2.iff	2	-5.494213	0.184067	2.400054	1	0	0	0		$|
2005647	1855746	object/tangible/furniture/technical/cabinet_s01.iff	2	6.786191	0.184067	0.4869779	1	0	0	0		$|
2005648	1855746	object/tangible/furniture/technical/armoire_s01.iff	2	3.390713	0.184067	0.370248	0.9999875	0	0.005000126	0		$|
2005649	1855746	object/tangible/furniture/technical/armoire_s01.iff	2	-0.1567454	0.184067	0.3541503	1	0	0	0		$|
2005650	1855746	object/tangible/furniture/technical/armoire_s01.iff	2	-3.699204	0.184067	0.3605034	0.9999875	0	0.005000126	0		$|
2005651	1855746	object/tangible/furniture/technical/cabinet_s01.iff	2	-7.087566	0.184067	0.4203643	0.9999875	0	0.005000126	0		$|
2005652	1855746	object/tangible/furniture/all/frn_all_bed_lg_s2.iff	2	-5.529757	0.184067	-2.291844	-0.0007964865	0	0.9999996	0		$|
2005653	1855746	object/tangible/furniture/technical/cabinet_s01.iff	2	-7.072047	0.184067	-0.2154421	-0.0007964865	0	0.9999996	0		$|
2005654	1855746	object/tangible/furniture/technical/armoire_s01.iff	2	-3.677341	0.184067	-0.2032165	-0.005796393	0	0.9999832	0		$|
2005655	1855746	object/tangible/furniture/all/frn_all_bed_lg_s2.iff	2	-1.93094	0.184067	-2.294999	-0.0007964865	0	0.9999996	0		$|
2005656	1855746	object/tangible/furniture/technical/armoire_s01.iff	2	-0.1298249	0.184067	-0.1927194	-0.0007964865	0	0.9999996	0		$|
2005657	1855746	object/tangible/furniture/all/frn_all_bed_lg_s2.iff	2	1.594395	0.184067	-2.248763	-0.0007964865	0	0.9999996	0		$|
2005658	1855746	object/tangible/furniture/all/frn_all_bed_lg_s2.iff	2	5.204414	0.184067	-2.247093	-0.0007964865	0	0.9999996	0		$|
2005659	1855746	object/tangible/furniture/technical/armoire_s01.iff	2	3.41262	0.184067	-0.2048086	-0.005796393	0	0.9999832	0		$|
2005660	1855746	object/tangible/furniture/technical/cabinet_s01.iff	2	6.781713	0.184067	-0.1345225	-0.005796393	0	0.9999832	0		$|
4608173	1855746	object/tangible/quest/corellia_coronet_rogue_corsec_base_computer_fake.iff	2	-17.16353	0.184067	2.900698	-0.005000011	0	0.9999875	0		$|
4608174	1855746	object/tangible/quest/corellia_coronet_rogue_corsec_base_computer_fake.iff	2	17.19387	0.184067	-3.066391	1	0	0	0		$|
1855747	1855744	object/cell/cell.iff	3	0	0	0	1	4.203895E-45	0	0		$|
1855749	0	object/static/vehicle/e3/landspeeder.iff	0	1137.96	5	1532.95	0.440178	0	0.897911	0		$|
1855750	0	object/static/vehicle/e3/landspeeder.iff	0	1141.56	5	1537.36	0.315323	0	0.948985	0		$|
1855752	0	object/static/structure/general/landing_pad_shuttle.iff	0	1075.67	5	1593.23	0.953727	0	-0.300673	0		$|
1855753	0	object/static/vehicle/player_shuttle.iff	0	1076.73	5	1591.39	0.944279	0	-0.329145	0		$|
1855754	0	object/static/structure/corellia/corl_imprv_wall_4x32_s04.iff	0	1117.32	5	1507.08	1	0	0	0		$|
1855755	0	object/static/structure/corellia/corl_imprv_wall_4x32_s04.iff	0	1089.53	5	1518.25	-0.382683	0	0.92388	0		$|
1855756	0	object/static/structure/corellia/corl_imprv_wall_4x32_s04.iff	0	1078.01	5	1545.81	0.707107	0	-0.707106	0		$|
1855757	0	object/static/structure/corellia/corl_imprv_wall_4x32_s04.iff	0	1066.54	5	1573.27	-0.382683	0	0.92388	0		$|
1855759	0	object/static/structure/corellia/corl_imprv_wall_4x32_s04.iff	0	1066.49	5	1628.2	0.382683	0	0.92388	0		$|
1855760	0	object/static/structure/corellia/corl_imprv_wall_4x32_s04.iff	0	1055	5	1600.65	0.707107	0	-0.707106	0		$|
1855761	0	object/static/structure/corellia/corl_imprv_wall_4x32_s04.iff	0	1152.34	5	1635.37	-0.524987	0	0.85111	0		$|
1855762	0	object/static/structure/corellia/corl_imprv_wall_4x32_s04.iff	0	1129.8	5	1654.94	0.987227	0	0.159318	0		$|
1855763	0	object/static/structure/corellia/corl_imprv_wall_4x32_s04.iff	0	1100.18	5	1652.6	0.973047	0	-0.230606	0		$|
1855764	0	object/static/structure/corellia/corl_imprv_wall_4x32_s04.iff	0	1207.47	5	1573.24	0.764585	0	-0.644523	0		$|
1855765	0	object/static/structure/corellia/corl_imprv_wall_4x32_s04.iff	0	1200.95	5	1602.37	0.888055	0	0.459737	0		$|
1855766	0	object/static/structure/corellia/corl_imprv_wall_4x32_s04.iff	0	1175.72	5	1618.06	0.99639	0	0.084897	0		$|
2005511	0	object/static/structure/military/military_column_weak_rebel_style_01.iff	0	1101.23	5	1506.91	1	0	0	0		$|
2005512	0	object/static/structure/military/military_column_weak_rebel_style_01.iff	0	1078.12	5	1529.53	0.986418	0	0.164252	0		$|
2005513	0	object/static/structure/military/military_column_weak_rebel_style_01.iff	0	1077.96	5	1562.03	1	0	0	0		$|
2005514	0	object/static/structure/military/military_column_weak_rebel_style_01.iff	0	1055.18	5	1584.64	1	0	0	0		$|
2005515	0	object/static/structure/military/military_column_weak_rebel_style_01.iff	0	1055.21	5	1617.05	1	0	0	0		$|
2005516	0	object/static/structure/military/military_column_weak_rebel_style_01.iff	0	1077.78	5	1639.37	1	0	0	0		$|
2005517	0	object/static/structure/military/military_column_weak_rebel_style_01.iff	0	1085.8	5	1645.42	1	0	0	0		$|
2005518	0	object/static/structure/military/military_column_weak_rebel_style_01.iff	0	1114.54	5	1659.84	1	0	0	0		$|
2005519	0	object/static/structure/military/military_column_weak_rebel_style_01.iff	0	1159.79	5	1620.94	1	0	0	0		$|
2005520	0	object/static/structure/military/military_column_weak_rebel_style_01.iff	0	1145.12	5	1649.68	1	0	0	0		$|
2005521	0	object/static/structure/military/military_column_weak_rebel_style_01.iff	0	1191.61	5	1615.26	1	0	0	0		$|
2005522	0	object/static/structure/military/military_column_weak_rebel_style_01.iff	0	1204.73	5.00092	1557.22	0.994493	0	-0.104807	0		$|
2005523	0	object/static/structure/military/military_column_weak_rebel_style_01.iff	0	1210.11	5	1589.06	1	0	0	0		$|
2005524	0	object/static/vehicle/e3/landspeeder.iff	0	1230.95	-0.724363	1530.83	-0.554158	0.185355	0.81135	-0.0162703		$|
2005525	0	object/static/particle/pt_steam_rise.iff	0	1229.25	1.03243	1531.25	1	0	0	0		$|
2005526	0	object/static/particle/pt_steam_rise.iff	0	1228.73	1.072	1529.39	1	0	0	0		$|
2005596	0	object/static/structure/military/military_column_weak_rebel_style_01.iff	0	1133.67	5	1507.15	0.990216	0	0.139543	0		$|
2005703	0	object/static/structure/corellia/corl_power_arial_thin.iff	0	1143.93	7.66938	1608.33	-0.11057	0	0.993868	0		$|
2005704	0	object/static/structure/corellia/corl_power_arial_thin.iff	0	1140.98	5	1606.27	0.999987	0	0.00499998	0		$|
2005705	0	object/static/structure/corellia/corl_power_arial_prime.iff	0	1143.17	9.09625	1606.56	0.309059	0	0.951043	0		$|
2005707	0	object/static/structure/general/data_terminal_s2.iff	0	1133.56	5	1591.6	-0.462485	0	0.886627	0		$|
2005708	0	object/static/structure/corellia/corl_imprv_wall_4x32_s04.iff	0	1136.35	5	1604.37	0.297716	0	0.954654	0		$|
2005709	0	object/static/structure/military/military_column_weak_rebel_style_01.iff	0	1123.15	5	1595.25	-0.625519	0	0.780209	0		$|
2005710	0	object/static/structure/military/military_column_weak_rebel_style_01.iff	0	1149.83	5	1613.64	-0.652438	0	0.757843	0		$|
2005713	0	object/static/structure/corellia/corl_imprv_wall_4x32_s04.iff	0	1091.23	5	1571.41	0.302486	0	0.953154	0		$|
2005715	0	object/static/structure/military/military_column_weak_rebel_style_01.iff	0	1104.62	5	1580.83	-0.64864	0	0.761095	0		$|
2005716	0	object/static/structure/corellia/corl_imprv_wall_4x16_s04.iff	0	1154.55	5	1606.67	0.884675	0	0.466208	0		$|
2005717	0	object/static/item/item_container_inorganic_minerals.iff	0	1124.52	5.88544	1624.03	0.275973	0	0.961165	0		$|
2005718	0	object/static/item/item_container_inorganic_minerals.iff	0	1123.95	5.88544	1628.92	-0.448779	0	0.893643	0		$|
2005719	0	object/static/item/item_container_inorganic_minerals.iff	0	1124.17	5	1628.31	0.870095	0	0.492883	0		$|
2005720	0	object/static/item/item_container_inorganic_minerals.iff	0	1124.13	5	1626.51	0.967964	0	-0.251089	0		$|
2005721	0	object/static/item/item_container_inorganic_minerals.iff	0	1124.27	5	1624.32	0.266733	0	0.96377	0		$|
2005722	0	object/static/item/item_container_inorganic_minerals.iff	0	1123.52	5.88544	1626.32	0.299156	0	0.954204	0		$|
2005723	0	object/static/item/item_container_inorganic_minerals.iff	0	1123.24	5	1626.13	0.251091	0	0.967963	0		$|
2005724	0	object/static/item/item_container_inorganic_minerals.iff	0	1123.75	5	1629.19	-0.492882	0	0.870096	0		$|
2005725	0	object/static/item/item_container_inorganic_minerals.iff	0	1121.83	5.88544	1623.87	0.299533	0	0.954086	0		$|
2005726	0	object/static/structure/general/prp_junk_s8.iff	0	1112.77	5.38489	1633.23	-0.157652	0.374254	0.686765	0.602853		$|
2005727	0	object/static/structure/general/prp_junk_s8.iff	0	1113.3	5.44272	1632.04	-0.256751	0.256751	0.658846	0.658847		$|
2005728	0	object/static/structure/general/prp_junk_s8.iff	0	1114.17	5.44272	1630.89	-0.336888	0.336889	0.621696	0.621696		$|
2005729	0	object/static/structure/general/prp_junk_s8.iff	0	1114.8	5.44272	1629.97	-0.336888	0.336889	0.621696	0.621696		$|
2005730	0	object/static/structure/general/prp_junk_s8.iff	0	1115.38	5.44272	1629.05	-0.336888	0.336889	0.621696	0.621696		$|
2005731	0	object/static/structure/general/prp_junk_s8.iff	0	1116.07	5.44272	1628.1	-0.336888	0.336889	0.621696	0.621696		$|
2005732	0	object/static/structure/general/prp_junk_s8.iff	0	1114.42	6.21172	1630.46	-0.336888	0.336889	0.621696	0.621696		$|
2005733	0	object/static/structure/general/prp_junk_s8.iff	0	1115.05	6.21172	1629.51	-0.336888	0.336889	0.621696	0.621696		$|
2005734	0	object/static/structure/general/prp_junk_s8.iff	0	1115.7	6.21172	1628.58	-0.336888	0.336889	0.621696	0.621696		$|
2005735	0	object/static/item/item_container_inorganic_minerals.iff	0	1122.24	5	1627.75	-0.485548	0	0.87421	0		$|
2005736	0	object/static/item/item_container_inorganic_minerals.iff	0	1120.44	5	1625.9	0.274824	0	0.961495	0		$|
2005737	0	object/static/item/item_container_inorganic_minerals.iff	0	1121.31	5	1626.33	0.961495	0	-0.274824	0		$|
2005738	0	object/static/item/item_container_inorganic_minerals.iff	0	1120.71	5.88544	1626.1	0.322535	0	0.946558	0		$|
2005739	0	object/static/item/item_container_inorganic_minerals.iff	0	1121.96	5.88544	1627.49	-0.477133	0	0.878831	0		$|
2005740	0	object/static/item/item_container_inorganic_minerals.iff	0	1121.56	5	1624.14	0.290359	0	0.956918	0		$|
2005741	0	object/static/item/item_container_inorganic_minerals.iff	0	1123.47	5	1622.4	0.881958	0	0.471329	0		$|
2005742	0	object/static/item/item_container_inorganic_minerals.iff	0	1123.01	5	1623.26	-0.471329	0	0.881957	0		$|
2005743	0	object/static/item/item_container_inorganic_minerals.iff	0	1123.26	5.88544	1622.66	0.904412	0	0.42666	0		$|
2005744	0	object/static/vehicle/e3/landspeeder.iff	0	1182.41	5	1581.5	0.904072	0	-0.427381	0		$|
2005745	0	object/static/vehicle/e3/landspeeder.iff	0	1172.38	5.20102	1596.7	0.970137	0	0.242557	0		$|
2005746	0	object/static/vehicle/static_lambda_shuttle.iff	0	1137.96	5	1631.86	0.958244	0	-0.285952	0		$|
2005751	0	object/static/structure/corellia/corl_power_bubble_node.iff	0	1149.16	5	1610.22	0.955336	0	-0.29552	0		$|
2005753	0	object/static/item/item_crate_spice.iff	0	1124.27	5	1594.52	0.501902	0	0.864925	0		$|
2005754	0	object/static/item/item_crate_spice.iff	0	1125.04	5	1595.21	0.310574	0	0.950549	0		$|
2005755	0	object/static/item/item_crate_spice.iff	0	1125.72	5	1595.88	0.248176	0	0.968715	0		$|
2005756	0	object/static/item/item_crate_spice.iff	0	1126.59	5	1596.39	0.248176	0	0.968715	0		$|
2005757	0	object/static/item/item_crate_spice.iff	0	1123.34	5	1593.95	0.0707379	0	0.997495	0		$|
2005761	0	object/static/item/item_mun_ballot_box.iff	0	1132.99	9.24283	1593.52	0.106184	0.880616	0.0552806	-0.458458		$|
4608181	0	object/static/structure/corellia/corl_power_connector.iff	0	1143.48	5	1607.05	0.298098	0	0.954535	0		$|
4608182	0	object/tangible/quest/corellia_coronet_rogue_corsec_base_computer_fake.iff	0	1148.88	5	1603.67	0.298098	0	0.954535	0		$|
