spawns	name	room	loc_x	loc_y	loc_z	yaw	script	mood	animation_mood	respawn_time	spawn_objvar	special_room	special_room_script	room_objvar	room_objvar_name	room_objvar_value	planet_level
s	s	s	f	f	f	f	s	s	s	i	s	s	s	s	s	s	i[0]
singing_mtn_clan_scout		world	5549.223145	127.9830475	-687.8067627	-85	theme_park.dungeon.generic_death	npc_meditate		3600	int:ai.defaultCalmBehavior=1						1
