objid	container	server_template_crc	cell_index	px	py	pz	qw	qx	qy	qz	scripts	objvars
i	i	h	i	f	f	f	f	f	f	f	s	p
1177363	0	object/building/endor/endor_tiki_torch.iff	0	863.694	132.235	1096.14	1	0	0	0		$|
9725613	0	object/tangible/camp/campfire_logs_ash.iff	0	868.106	132.004	1096.13	0.99959	-0.0198944	0.00539792	-0.0198944	theme_park.dungeon.generic_spawner	spawn_table|4|datatables/spawning/poi_spawner/dathomir/dath_nsister_outcast_hut_central.iff|$|
