objid	container	server_template_crc	cell_index	px	py	pz	qw	qx	qy	qz	scripts	objvars
i	i	h	i	f	f	f	f	f	f	f	s	p
1106807	0	object/tangible/furniture/cheap/chest_s01.iff	0	662.366	30.0246	214.261	0.690371	0	0.723455	0		$|
1106808	0	object/tangible/furniture/tatooine/frn_tato_chair_cafe_style_01.iff	0	664.399	30	212.671	0.942142	0	0.335213	0		$|
1106809	0	object/tangible/furniture/tatooine/frn_tato_chair_cafe_style_02.iff	0	664.498	30	215.264	0.401082	0	0.916042	0		$|
1106810	0	object/tangible/furniture/cheap/chest_s01.iff	0	665.537	30	216.821	-0.100065	0	0.994981	0		$|
1106825	0	object/static/structure/tatooine/debris_tatt_drum_dented_1.iff	0	668.922	30	221.788	0.648671	0	0.761069	0		$|
1106826	0	object/static/structure/tatooine/debris_tatt_drum_dented_1.iff	0	667.472	30	221.208	0.945184	0	-0.326539	0		$|
1106827	0	object/static/structure/tatooine/jawa/tent_jawa_01_small.iff	0	669.058	30	220.489	0.99998	0	0.006342	0		$|
1106828	0	object/static/structure/tatooine/jawa/tent_jawa_01_small.iff	0	670.975	30	208.205	0.95202	0	-0.306036	0		$|
1106829	0	object/static/structure/tatooine/jawa/tent_jawa_01_small.iff	0	679.856	30	216.454	0.109941	0	0.993938	0		$|
1106830	0	object/static/structure/tatooine/debris_tatt_drum_storage_2.iff	0	672.908	30	207.387	0.998697	0	0.051029	0		$|
1106831	0	object/static/structure/tatooine/debris_tatt_drum_storage_2.iff	0	672.401	30	208.233	0.973702	0	-0.227824	0		$|
1106832	0	object/static/structure/tatooine/debris_tatt_drum_storage_2.iff	0	673.525	30	207.756	-0.051118	0	0.998693	0		$|
1106833	0	object/static/structure/tatooine/debris_tatt_drum_dented_1.iff	0	670.06	30.065	206.712	0.049647	0	0.998767	0		$|
1106834	0	object/static/item/item_container_organic_food.iff	0	680.511	30.0186	217.919	0.078627	0	0.996904	0		$|
1106835	0	object/static/item/item_container_organic_food.iff	0	681.055	30.0385	218.346	0.357471	0	0.933924	0		$|
1106836	0	object/static/structure/tatooine/debris_tatt_crate_1.iff	0	670.664	30	220.922	0.941743	0	-0.336333	0		$|
1106837	0	object/static/structure/tatooine/debris_tatt_crate_1.iff	0	670.862	30	222.535	0.990969	0	0.134089	0		$|
1106838	0	object/static/structure/general/droid_r5_powerdown.iff	0	668.629	30	220.776	-0.026961	0	0.999636	0		$|
1106839	0	object/static/item/item_con_ration_kit_m.iff	0	668.679	31.1384	221.491	-0.513671	0	0.857987	0		$|
1106840	0	object/static/item/item_con_ration_kit_lg.iff	0	670.646	30.6957	220.915	0.957548	0	-0.288275	0		$|
1106841	0	object/static/item/item_con_ration_kit_lg.iff	0	670.762	30.6957	220.681	0.363611	0	0.931551	0		$|
1106842	0	object/static/item/item_container_organic_food.iff	0	680.302	30.011	218.887	0.98135	0	-0.192228	0		$|
1106843	0	object/static/item/item_bottle_fat.iff	0	662.631	30.9377	213.997	0.999998	0	-0.001784	0		$|
1106844	0	object/static/item/item_container_organic_food.iff	0	680.614	30.0224	218.484	0.98135	0	-0.192228	0		$|
1106845	0	object/static/item/item_container_organic_food.iff	0	680.037	30.0013	218.406	-0.522108	0	0.852879	0		$|
1106846	0	object/static/item/item_container_inorganic_minerals.iff	0	681.293	30.0168	216.381	0.99467	0	-0.103106	0		$|
1106847	0	object/static/structure/tatooine/tent_house_tatooine_style_01.iff	0	665.209	30	214.176	0.708453	0	-0.705758	0		$|
1106848	0	object/static/structure/tatooine/debris_tatt_drum_storage_2.iff	0	669.952	30	208.738	0.189252	0	0.981929	0		$|
1106849	0	object/static/structure/tatooine/debris_tatt_drum_storage_2.iff	0	670.793	30	208.225	0.449513	0	0.893274	0		$|
1106850	0	object/static/structure/tatooine/debris_tatt_drum_storage_2.iff	0	670.561	30	209.335	0.593505	0	0.80483	0		$|
1106851	0	object/static/structure/general/campfire_fresh.iff	0	670.933	30	215.803	1	0	0.000598	0		$|
1106852	0	object/static/item/item_con_ration_kit_m.iff	0	665.663	30	213.795	-0.512191	0	0.858872	0		$|
1106853	0	object/static/item/item_con_ration_kit_lg.iff	0	665.598	30.9487	216.69	0.360903	0	0.932603	0		$|
1316294	0	object/static/structure/tatooine/pillar_ruined_large_style_01.iff	0	1365.81	85.0823	1082.14	0.988482	-0.0569111	-0.104174	0.0938744		$|
1316295	0	object/static/structure/tatooine/pillar_ruined_small_style_01.iff	0	1364.58	84.7234	1078.91	0.91011	0.0549826	0.390164	0.128254		$|
1316296	0	object/static/structure/tatooine/wall_ruined_tatooine_large_style_02.iff	0	1365.19	84.6767	1071.02	0.979942	0.0662363	0.185826	0.0282149		$|
1316297	0	object/static/structure/tatooine/wall_ruined_tatooine_small_style_01.iff	0	1362.82	84.4621	1075.52	0.975267	0.0229335	0.182511	0.122547		$|
1316298	0	object/static/structure/tatooine/wall_ruined_tatooine_large_style_01.iff	0	1373.5	84.292	1076.65	0.979388	0.0156166	0.183282	0.083449		$|
1316299	0	object/static/structure/tatooine/stone_hovel_tatooine_style_01.iff	0	1367.38	84.7685	1075.8	0.982874	-0.0177938	0.182918	0.0135013		$|
1316302	0	object/static/structure/general/gravestone_generic_style_02.iff	0	1369.16	86.6349	1092.41	0.794651	-0.0362894	0.604098	-0.0477364		$|
1316303	0	object/static/structure/general/gravestone_generic_style_03.iff	0	1369.15	86.7343	1094.22	0.71791	0	0.696136	0		$|
3565385	0	object/building/player/player_house_tatooine_small_style_01.iff	0	1655.24	34.6646	1833.73	-0.130424	0	0.991458	0		$|
3565386	3565385	object/cell/cell.iff	1	0	0	0	1	1.401298E-45	0	0		$|
3565403	3565386	object/tangible/furniture/cheap/bookcase_s01.iff	1	2.268464	0.7727062	5.685394	0.7071076	0	-0.7071059	0		$|
3565404	3565386	object/tangible/furniture/cheap/bookcase_s01.iff	1	2.257609	0.7727062	3.946212	0.7071075	0	-0.707106	0		$|
3565405	3565386	object/tangible/furniture/cheap/couch_s01.iff	1	-3.681766	0.7727062	2.907616	0.7071075	0	0.707106	0		$|
3565406	3565386	object/tangible/furniture/cheap/love_seat_s01.iff	1	-2.025506	0.7727062	0.3496068	1	0	0	0		$|
3565407	3565386	object/tangible/furniture/cheap/end_table_s01.iff	1	-3.721367	0.7727062	0.8005388	0.7071075	0	-0.707106	0		$|
3565408	3565386	object/tangible/furniture/cheap/chair_s01.iff	1	-0.04779743	0.7727062	3.832607	-0.4401776	0	0.8979108	0		$|
3565410	3565386	object/tangible/furniture/tatooine/frn_tatt_table_cantina_table_2.iff	1	-1.625498	0.7727062	2.583391	1	0	0	0		$|
3565411	3565386	object/tangible/furniture/cheap/cabinet_s01.iff	1	-0.286402	0.7727062	-1.154788	0.9982005	0	0.05996401	0		$|
3565412	3565386	object/tangible/furniture/all/frn_all_lamp_free_s01.iff	1	-1.588589	0.7727062	-0.7796004	-0.1978886	0	0.9802245	0		$|
3565413	3565386	object/tangible/furniture/cheap/chest_s01.iff	1	1.071188	0.7727062	-1.223997	0.99995	0	0.009999841	0		$|
3565415	3565386	object/tangible/furniture/all/frn_all_bed_sm_s1.iff	1	5.568438	0.7727062	4.201846	-0.0007963734	0	0.9999998	0		$|
3565416	3565386	object/tangible/furniture/tatooine/frn_tato_table_small_style_02.iff	1	6.885233	0.7727062	6.264728	-0.5978339	0	0.80162	0		$|
3565417	3565386	object/tangible/furniture/cheap/bookcase_s01.iff	1	2.726788	0.7727062	5.678028	0.7071075	0	0.707106	0		$|
3565418	3565386	object/tangible/furniture/cheap/chest_s01.iff	1	2.850331	0.7727062	4.191357	0.7038453	0	0.7103534	0		$|
3565420	3565386	object/tangible/furniture/all/frn_all_lamp_tbl_s02.iff	1	7.014048	1.531653	6.3069	-0.4801242	0	0.8772006	0		$|
3565421	3565386	object/static/item/item_data_disk.iff	1	6.552827	1.278671	6.204624	0.9460424	0	-0.3240429	0		$|
3565422	3565386	object/static/item/item_data_disk.iff	1	7.014526	1.120557	6.030253	1	0	0	0		$|
3565423	3565386	object/static/item/item_data_disk.iff	1	6.899104	1.120557	5.977897	1	0	0	0		$|
3565424	3565386	object/static/item/item_decryptor_imperial.iff	1	6.712264	1.278671	6.185921	0.9460424	0	-0.3240429	0		$|
3565425	3565386	object/static/item/item_shisha.iff	1	-3.689474	1.183802	1.075029	0.4975709	0	0.8674232	0		$|
3565426	3565386	object/static/item/item_bottle_pear.iff	1	1.277252	1.721389	-1.054313	1	0	0	0		$|
3565427	3565386	object/static/item/item_bottle_fat.iff	1	0.8929833	1.721389	-1.051663	1	0	0	0		$|
3565429	3565386	object/tangible/furniture/modern/dining_table_modern_style_01.iff	1	5.318161	0.7727062	-0.8894407	1	0	0	0		$|
3565431	3565386	object/static/item/item_meat_hunk.iff	1	4.454377	1.753012	-0.7083722	0.9747941	0	-0.2231065	0		$|
3565432	3565386	object/static/item/item_kitchen_pot_style_03.iff	1	3.517523	1.784635	-1.176075	0.8892928	0	-0.4573384	0		$|
3565433	3565386	object/static/item/item_kitchen_pot_style_02.iff	1	3.490954	1.784635	-0.5453302	0.1880769	0	0.9821544	0		$|
3565434	3565386	object/static/item/item_kitchen_pot_style_01.iff	1	3.236252	1.784635	-0.8252939	0.9747941	0	0.2231065	0		$|
3565435	3565386	object/static/item/item_kitchen_pot_style_02.iff	1	2.941528	1.784635	-0.8855658	0.1945478	0	0.9808931	0		$|
3565436	3565386	object/static/item/item_kitchen_portable_stove_sm_s1.iff	1	2.97494	1.784635	-0.3859942	1	0	0	0		$|
3565437	3565386	object/static/item/item_kitchen_cook_set_lg_s1.iff	1	2.527108	1.784635	-0.9573742	0.9610555	0	0.2763556	0		$|
3565438	3565386	object/static/item/item_jar_berries.iff	1	6.223624	1.753012	-1.212849	1	0	0	0		$|
3565439	3565386	object/static/item/item_con_bowl_serving_full.iff	1	6.127215	1.753012	-0.829533	1	0	0	0		$|
3565441	3565386	object/static/item/item_bowl_shallow.iff	1	4.317789	1.753012	-0.7612786	0.9747941	0	-0.2231065	0		$|
3565442	3565386	object/static/item/item_con_bag_ingredients_lg_s1.iff	1	6.586006	1.753012	-1.108961	1	0	0	0		$|
3565443	3565386	object/static/item/item_con_ration_kit_lg.iff	1	6.943509	1.753012	-0.796393	1	0	0	0		$|
3565444	3565386	object/static/item/item_con_ration_kit_lg.iff	1	6.563771	1.753012	-0.6456968	0.8419008	0	-0.5396323	0		$|
3565445	3565386	object/static/item/item_con_ration_kit_m.iff	1	6.148263	1.753012	-0.5585089	1	0	0	0		$|
3565446	3565386	object/static/item/item_cheese_wheel_s1_partial.iff	1	4.593316	1.911125	-0.6869516	0.8577088	0	0	0		$|
3565447	3565386	object/static/item/item_con_tato_bowl_full_s02.iff	1	5.5934	1.753012	-0.9287138	1	0	0	0		$|
3565450	3565386	object/static/item/item_con_bowl_full.iff	1	5.093174	1.753012	-0.9817638	0.9341238	0	-0.3569493	0		$|
3565387	3565385	object/cell/cell.iff	2	0	0	0	1	2.802597E-45	0	0		$|
3565388	3565385	object/cell/cell.iff	3	0	0	0	1	0	0	0		$|
3565389	0	object/static/installation/mockup_mining_liquid_moisture_harvester.iff	0	1643.66	35.137	1847.15	1	0	0	0		$|
3565390	0	object/static/structure/general/tankfarm_s01.iff	0	1652.67	35	1844.05	0.992198	0	0.124675	0		$|
3565391	0	object/static/structure/tatooine/debris_tatt_drum_dented_1.iff	0	1648.36	35	1843.01	0.862807	0	-0.505533	0		$|
3565392	0	object/static/structure/tatooine/debris_tatt_drum_storage_2.iff	0	1647.84	35	1839.89	0.857709	0	-0.514136	0		$|
3565393	0	object/static/structure/tatooine/debris_tatt_pipe_narrow_2.iff	0	1646.99	34.1277	1837.72	0.735087	0	-0.677972	0		$|
3565394	0	object/static/structure/tatooine/pillar_ruined_small_style_01.iff	0	1639.13	34.8571	1818.7	0.953847	0	0.300293	0		$|
3565395	0	object/static/structure/tatooine/pillar_pristine_small_style_01.iff	0	1647.04	34.6	1812.99	0.986418	0	0.164252	0		$|
3565396	0	object/static/structure/tatooine/pillar_pristine_small_style_01.iff	0	1656.84	34.6	1811.71	1	0	0	0		$|
3565397	0	object/static/structure/tatooine/pillar_ruined_small_style_01.iff	0	1665.8	34.6	1812.3	0.0791209	0	0.996865	0		$|
3565398	0	object/static/structure/tatooine/pillar_ruined_small_style_01.iff	0	1625.33	34.6163	1827.55	0.930884	-0.0547211	-0.35772	0.0499641		$|
3565399	0	object/static/structure/tatooine/pillar_ruined_small_style_01.iff	0	1608.4	34.5824	1844.39	-0.243329	0	0.969944	0		$|
3565400	0	object/static/structure/tatooine/debris_tatt_pipe_narrow_1.iff	0	1661.23	40.1135	1837.19	1	0	0	0		$|
8156002	0	object/static/structure/tatooine/beam_tatooine_overhead_style_02.iff	0	595.989	39.367	1678.34	0.830387	-0.486538	-0.137276	0.234293		$|
8156005	0	object/static/structure/tatooine/pillar_ruined_large_style_01.iff	0	600.068	40.9497	1674.23	0.951618	-0.143823	-0.0405795	0.268498		$|
8156008	0	object/static/structure/tatooine/wall_ruined_tatooine_small_style_01.iff	0	587.607	39.2233	1670.55	1	0	0	0		$|
8156009	0	object/static/structure/tatooine/wall_ruined_tatooine_large_style_02.iff	0	594.688	37.872	1666.53	0.982004	0	0	0.188859		$|
8156015	0	object/static/structure/tatooine/pillar_damaged_large_style_01.iff	0	599.722	39.6577	1669.05	0.962425	0	0	-0.271547		$|
8156018	0	object/static/structure/tatooine/concrete_slab_tatooine_16x8.iff	0	1032.73	28.1355	743.567	-0.31209	-0.372023	0.87313	-0.0429345		$|
