spawns	name	required_config	room	loc_x	loc_y	loc_z	yaw	script	mood	animation_mood	respawn_time	spawn_objvar	special_room	special_room_script	room_objvar	room_objvar_name	room_objvar_value
s	s	s[none]	s	f	f	f	f	s	s	s	i	s	s	s	s	s	s
corsec_rogue			mainroom	-7.681789875	0.184066996	4.891020775		theme_park.dungeon.generic_death			119	int:ai.defaultCalmBehavior=2					
corsec_rogue			mainroom	-7.681789875	0.184066996	4.891020775		theme_park.dungeon.generic_death			119	int:ai.defaultCalmBehavior=2					
corsec_rogue			mainroom	-7.681789875	0.184066996	4.891020775		theme_park.dungeon.generic_death			119	int:ai.defaultCalmBehavior=2					
corsec_deserter			mainroom	8.88297081	0.184066996	-4.825861454		theme_park.dungeon.generic_death			119	int:ai.defaultCalmBehavior=2					
corsec_deserter			mainroom	8.88297081	0.184066996	-4.825861454		theme_park.dungeon.generic_death			119	int:ai.defaultCalmBehavior=2					
corsec_deserter			mainroom	8.88297081	0.184066996	-4.825861454		theme_park.dungeon.generic_death			119	int:ai.defaultCalmBehavior=2					
