spawns	name	required_config	room	loc_x	loc_y	loc_z	yaw	script	mood	animation_mood	respawn_time	spawn_objvar	special_room	special_room_script	room_objvar	room_objvar_name	room_objvar_value
s	s	s[none]	s	f	f	f	f	s	s	s	i	s	s	s	s	s	s
corsec_deserter			mainroom	8.603824615	0.184066996	4.28538084		theme_park.dungeon.generic_death			109	int:ai.defaultCalmBehavior=2					
corsec_deserter			mainroom	8.603824615	0.184066996	4.28538084		theme_park.dungeon.generic_death			109	int:ai.defaultCalmBehavior=2					
corsec_traitor			mainroom	0.157243997	0.184066996	-1.349746943		theme_park.dungeon.generic_death			129	int:ai.defaultCalmBehavior=2					
corsec_traitor			mainroom	0.157243997	0.184066996	-1.349746943		theme_park.dungeon.generic_death			129	int:ai.defaultCalmBehavior=2					
corsec_renegade			mainroom	-8.588871002	0.184066996	-4.97004509		theme_park.dungeon.generic_death			119	int:ai.defaultCalmBehavior=2					
corsec_renegade			mainroom	-8.588871002	0.184066996	-4.97004509		theme_park.dungeon.generic_death			119	int:ai.defaultCalmBehavior=2					
corellia_corsec_rogue_hiram_bish			mainroom	1.6	0.2	3.6	175	theme_park.dungeon.generic_death			349	int:ai.defaultCalmBehavior=2					
